set terminal png
set output "plot.png"

set grid
set format y "%6.3f"
set ylabel "Total energy (Ry)"
set xlabel "K-point mesh (N x N x N)"

plot 'Etot-vs-kpoint.dat' w linespoints lw 2 pt 4 ps 1.2
# pause -1

